{
      "Akai_Professional_MidiMix": {
            "U0:E0": [
                  "Knob",
                  16,
                  "0-127"
            ],
            "U0:E1": [
                  "Knob",
                  17,
                  "0-127"
            ],
            "U0:E2": [
                  "Knob",
                  18,
                  "0-127"
            ],
            "U0:E3": [
                  "Button",
                  1,
                  "Switch"
            ],
            "U0:E4": [
                  "Button",
                  3,
                  "Count"
            ],
            "U0:E5": [
                  "Slider",
                  19,
                  "0-127"
            ],
            "U1:E0": [
                  "Knob",
                  20,
                  "0-127"
            ],
            "U1:E1": [
                  "Knob",
                  21,
                  "0-127"
            ],
            "U1:E2": [
                  "Knob",
                  22,
                  "0-127"
            ],
            "U1:E3": [
                  "Button",
                  4,
                  "Switch"
            ],
            "U1:E4": [
                  "Button",
                  6,
                  "Count"
            ],
            "U1:E5": [
                  "Slider",
                  23,
                  "0-127"
            ],
            "U2:E0": [
                  "Knob",
                  24,
                  "0-127"
            ],
            "U2:E1": [
                  "Knob",
                  25,
                  "0-127"
            ],
            "U2:E2": [
                  "Knob",
                  26,
                  "0-127"
            ],
            "U2:E3": [
                  "Button",
                  7,
                  "Switch"
            ],
            "U2:E4": [
                  "Button",
                  9,
                  "Count"
            ],
            "U2:E5": [
                  "Slider",
                  27,
                  "0-127"
            ],
            "U3:E0": [
                  "Knob",
                  28,
                  "0-127"
            ],
            "U3:E1": [
                  "Knob",
                  29,
                  "0-127"
            ],
            "U3:E2": [
                  "Knob",
                  30,
                  "0-127"
            ],
            "U3:E3": [
                  "Button",
                  10,
                  "Switch"
            ],
            "U3:E4": [
                  "Button",
                  12,
                  "Count"
            ],
            "U3:E5": [
                  "Slider",
                  31,
                  "0-127"
            ],
            "U4:E0": [
                  "Knob",
                  46,
                  "0-127"
            ],
            "U4:E1": [
                  "Knob",
                  47,
                  "0-127"
            ],
            "U4:E2": [
                  "Knob",
                  48,
                  "0-127"
            ],
            "U4:E3": [
                  "Button",
                  13,
                  "Switch"
            ],
            "U4:E4": [
                  "Button",
                  15,
                  "Count"
            ],
            "U4:E5": [
                  "Slider",
                  49,
                  "0-127"
            ],
            "U5:E0": [
                  "Knob",
                  50,
                  "0-127"
            ],
            "U5:E1": [
                  "Knob",
                  51,
                  "0-127"
            ],
            "U5:E2": [
                  "Knob",
                  52,
                  "0-127"
            ],
            "U5:E3": [
                  "Button",
                  16,
                  "Switch"
            ],
            "U5:E4": [
                  "Button",
                  18,
                  "Count"
            ],
            "U5:E5": [
                  "Slider",
                  53,
                  "0-127"
            ],
            "U6:E0": [
                  "Knob",
                  54,
                  "0-127"
            ],
            "U6:E1": [
                  "Knob",
                  55,
                  "0-127"
            ],
            "U6:E2": [
                  "Knob",
                  56,
                  "0-127"
            ],
            "U6:E3": [
                  "Button",
                  19,
                  "Switch"
            ],
            "U6:E4": [
                  "Button",
                  21,
                  "Count"
            ],
            "U6:E5": [
                  "Slider",
                  57,
                  "0-127"
            ],
            "U7:E0": [
                  "Knob",
                  58,
                  "0-127"
            ],
            "U7:E1": [
                  "Knob",
                  59,
                  "0-127"
            ],
            "U7:E2": [
                  "Knob",
                  60,
                  "0-127"
            ],
            "U7:E3": [
                  "Button",
                  22,
                  "Switch"
            ],
            "U7:E4": [
                  "Button",
                  24,
                  "Count"
            ],
            "U7:E5": [
                  "Slider",
                  61,
                  "0-127"
            ],
            "U8:E0": [
                  "Button",
                  62,
                  "Switch"
            ],
            "U8:E1": [
                  "Button",
                  25,
                  "Count"
            ],
            "U8:E2": [
                  "Button",
                  26,
                  "Count"
            ],
            "U8:E3": [
                  "Button",
                  27,
                  "Switch"
            ],
            "U8:E4": [
                  "Slider",
                  62,
                  "0-127"
            ]
      }
}